{"articles":[
	{
		"article_number": "1216129",
		"manufacturer": {
			"id":    1120,
			"name":"Dell"
			},
		"text1_de":"Dell Server R620",
		"text1_en":"DELL SERVER R620",
		"sku":"SYS-4029GP-TRT",
		"created":"2018-03-21",
		"shop_status":true,
		"hidden":false,
		"deleted":false,
		"weight":46.00,
		"text2_de":null,
		"text2_en":null,
		"ean":null,
		"ek":3603.94,
		"vk1":4510.00,
		"vk2":4342.10,
		"vk3":4095.39,
		"vk4":4030.00,
		"vk5":3965.00,
		"vk6":3896.00,
		"stock":  5,
		"replenishment_time":3,
		"tdp":null,
		"available_from":null,
		"active_from":null,
		"active_until":null,
		"puid":5950841000,
		"pdf_link":null,
		"length":null,
		"width":null,
		"depth":null,
		"deeplink":"https://www.dell.com/red/app#products/page/5950841000/-",
		"long_description_de": "",
		"long_description_en": ""
	},
	{
		"article_number": "1216130",
		"manufacturer": {
			"id":    1121,
			"name":"SUPER MICRO Computer"
			},
		"text1_de":"Supermicro Barebone 4029GP-TRT2",
		"text1_en":"Supermicro barebone 4029GP-TRT2",
		"sku":"SYS-4029GP-TRT2",
		"created":"2018-03-21",
		"shop_status":true,
		"hidden":false,
		"deleted":false,
		"weight":37.00,
		"text2_de":null,
		"text2_en":null,
		"ean":null,
		"ek":3947.50,
		"vk1":4940.00,
		"vk2":4756.03,
		"vk3":4485.80,
		"vk4":4415.00,
		"vk5":4340.00,
		"vk6":4268.00,
		"stock":  1,
		"replenishment_time":3,
		"tdp":null,
		"available_from":null,
		"active_from":null,
		"active_until":null,
		"puid":5950842000,
		"pdf_link":null,
		"length":null,
		"width":null,
		"depth":null,
		"deeplink":"https://www.smicro.com/red/app#search/portal/SYS-4029GP-TR",
		"long_description_de": "",
		"long_description_en": ""
	},
	{
		"article_number": "1216131",
		"manufacturer": {
			"id":    1121,
			"name":"SUPER MICRO Computer"
			},
		"text1_de":"Supermicro Barebone 2029P-C1R",
		"text1_en":"Supermicro barebone 2029P-C1R",
		"sku":"SYS-2029P-C1R",
		"created":"2018-03-21",
		"shop_status":true,
		"hidden":false,
		"deleted":false,
		"weight":18.00,
		"text2_de":null,
		"text2_en":null,
		"ean":null,
		"ek":1515.04,
		"vk1":1900.00,
		"vk2":1825.35,
		"vk3":1721.64,
		"vk4":1695.00,
		"vk5":1665.00,
		"vk6":1638.00,
		"stock":  1,
		"replenishment_time":3,
		"tdp":null,
		"available_from":null,
		"active_from":null,
		"active_until":null,
		"puid":6004369000,
		"pdf_link":null,
		"length":null,
		"width":null,
		"depth":null,
		"deeplink":"https://www.smicro.com/red/app#search/portal/SYS-2029P-C1R/",
		"long_description_de": "",
		"long_description_en": ""
	},
	{
		"article_number": "1216132",
		"manufacturer": {
			"id":    1121,
			"name":"SUPER MICRO Computer"
			},
		"text1_de":"Supermicro Barebone 2029P-C1R",
		"text1_en":"Supermicro barebone 2029P-C1R",
		"sku":"SYS-2029P-C1R",
		"created":"2018-03-21",
		"shop_status":true,
		"hidden":false,
		"deleted":false,
		"weight":18.00,
		"text2_de":null,
		"text2_en":null,
		"ean":null,
		"ek":1515.04,
		"vk1":1900.00,
		"vk2":1825.35,
		"vk3":1721.64,
		"vk4":1695.00,
		"vk5":1665.00,
		"vk6":1638.00,
		"stock":  1,
		"replenishment_time":3,
		"tdp":null,
		"available_from":null,
		"active_from":null,
		"active_until":null,
		"puid":6004369000,
		"pdf_link":null,
		"length":null,
		"width":null,
		"depth":null,
		"deeplink":"https://www.smicro.com/red/app#search/portal/SYS-2029P-C1R/",
		"long_description_de": "",
		"long_description_en": ""
	}
	]}